%YAML 1.1
%TAG !u! tag:unity3d.com,2011:
--- !u!21 &2100000
Material:
  serializedVersion: 6
  m_ObjectHideFlags: 0
  m_CorrespondingSourceObject: {fileID: 0}
  m_PrefabInstance: {fileID: 0}
  m_PrefabAsset: {fileID: 0}
  m_Name: AN_Fir_Bark
  m_Shader: {fileID: 4800000, guid: c61194769c49566439e564fcdf2deff8, type: 3}
  m_ShaderKeywords: _BLENDNORMALS1_ON _BLENDNORMALS_ON _BOTTOMCOVERAGE_ON _COVERAGEOVERLAYTYPE_VERTEX_POSITION
    _COVERAGETHICKNESS_ON _COVERAGE_ON _GROUNDTEXTURE_ON _INVERTCOVERAGE_ON _METALLICGLOSSMAP
    _NORMALFROMCOVERAGE_ON _NORMALMAP _SNOW_ON
  m_LightmapFlags: 4
  m_EnableInstancingVariants: 0
  m_DoubleSidedGI: 0
  m_CustomRenderQueue: -1
  stringTagMap: {}
  disabledShaderPasses: []
  m_SavedProperties:
    serializedVersion: 3
    m_TexEnvs:
    - _BarkAlbedo:
        m_Texture: {fileID: 2800000, guid: e85a2cfcd18b57544a354b393a4931c6, type: 3}
        m_Scale: {x: 1, y: 1}
        m_Offset: {x: 0, y: 0}
    - _BarkNormal:
        m_Texture: {fileID: 2800000, guid: 8d693b689de8e0f46bc143b0e939d49b, type: 3}
        m_Scale: {x: 1, y: 1}
        m_Offset: {x: 0, y: 0}
    - _BarkSmoothness:
        m_Texture: {fileID: 2800000, guid: 070c3aa3dad83fb43acb2798bdd7da8d, type: 3}
        m_Scale: {x: 1, y: 1}
        m_Offset: {x: 0, y: 0}
    - _BumpMap:
        m_Texture: {fileID: 2800000, guid: 8d693b689de8e0f46bc143b0e939d49b, type: 3}
        m_Scale: {x: 1, y: 1}
        m_Offset: {x: 0, y: 0}
    - _CoverageAlbedo:
        m_Texture: {fileID: 2800000, guid: a42cd62f3c2eebb47b0132c8c661b27e, type: 3}
        m_Scale: {x: 6, y: 6}
        m_Offset: {x: 0, y: 0}
    - _CoverageMask:
        m_Texture: {fileID: 2800000, guid: 6256982f10c8bb141ac4d83ddbea3bf2, type: 3}
        m_Scale: {x: 2, y: 2}
        m_Offset: {x: 0, y: 0}
    - _CoverageNormal:
        m_Texture: {fileID: 2800000, guid: 57ef960ad9ca8b94bad434e31c0b2c7e, type: 3}
        m_Scale: {x: 6, y: 6}
        m_Offset: {x: 0, y: 0}
    - _DetailAlbedoMap:
        m_Texture: {fileID: 0}
        m_Scale: {x: 1, y: 1}
        m_Offset: {x: 0, y: 0}
    - _DetailMask:
        m_Texture: {fileID: 0}
        m_Scale: {x: 1, y: 1}
        m_Offset: {x: 0, y: 0}
    - _DetailNormalMap:
        m_Texture: {fileID: 0}
        m_Scale: {x: 1, y: 1}
        m_Offset: {x: 0, y: 0}
    - _EmissionMap:
        m_Texture: {fileID: 0}
        m_Scale: {x: 1, y: 1}
        m_Offset: {x: 0, y: 0}
    - _GroundAlbedo:
        m_Texture: {fileID: 2800000, guid: a42cd62f3c2eebb47b0132c8c661b27e, type: 3}
        m_Scale: {x: 4, y: 4}
        m_Offset: {x: 0, y: 0}
    - _GroundNormal:
        m_Texture: {fileID: 2800000, guid: 57ef960ad9ca8b94bad434e31c0b2c7e, type: 3}
        m_Scale: {x: 4, y: 4}
        m_Offset: {x: 0, y: 0}
    - _MainTex:
        m_Texture: {fileID: 2800000, guid: e85a2cfcd18b57544a354b393a4931c6, type: 3}
        m_Scale: {x: 1, y: 1}
        m_Offset: {x: 0, y: 0}
    - _MetallicGlossMap:
        m_Texture: {fileID: 2800000, guid: 2c21734fd3481b84d841beb5c0da0e8a, type: 3}
        m_Scale: {x: 1, y: 1}
        m_Offset: {x: 0, y: 0}
    - _OcclusionMap:
        m_Texture: {fileID: 0}
        m_Scale: {x: 1, y: 1}
        m_Offset: {x: 0, y: 0}
    - _ParallaxMap:
        m_Texture: {fileID: 0}
        m_Scale: {x: 1, y: 1}
        m_Offset: {x: 0, y: 0}
    - _SnowAlbedo:
        m_Texture: {fileID: 0}
        m_Scale: {x: 1, y: 1}
        m_Offset: {x: 0, y: 0}
    - _SnowNormal:
        m_Texture: {fileID: 0}
        m_Scale: {x: 1, y: 1}
        m_Offset: {x: 0, y: 0}
    - _SurfaceAlbedo:
        m_Texture: {fileID: 2800000, guid: e85a2cfcd18b57544a354b393a4931c6, type: 3}
        m_Scale: {x: 1, y: 1}
        m_Offset: {x: 0, y: 0}
    - _SurfaceNormal:
        m_Texture: {fileID: 2800000, guid: 8d693b689de8e0f46bc143b0e939d49b, type: 3}
        m_Scale: {x: 1, y: 1}
        m_Offset: {x: 0, y: 0}
    - _Texture0:
        m_Texture: {fileID: 0}
        m_Scale: {x: 1, y: 1}
        m_Offset: {x: 0, y: 0}
    - _TextureSample0:
        m_Texture: {fileID: 2800000, guid: 6256982f10c8bb141ac4d83ddbea3bf2, type: 3}
        m_Scale: {x: 2, y: 2}
        m_Offset: {x: 0, y: 0}
    - _TextureSample1:
        m_Texture: {fileID: 0}
        m_Scale: {x: 1, y: 1}
        m_Offset: {x: 0, y: 0}
    - _texcoord:
        m_Texture: {fileID: 0}
        m_Scale: {x: 1, y: 1}
        m_Offset: {x: 0, y: 0}
    m_Floats:
    - _AlphaCutoff: 0.5
    - _BlendNormals: 1
    - _BlendNormals1: 1
    - _BottomCoverage: 1
    - _BumpScale: 1
    - _COVERAGE: 1
    - _CoverageContrast: 0.1
    - _CoverageFade: -0.25
    - _CoverageLevel: -1.1
    - _CoverageOverlayType: 1
    - _CoverageSmoothness: 0.15
    - _CoverageThickness: 1
    - _CoverageThicknessLevel: 0.4
    - _Cutoff: 0.5
    - _DetailNormalMapScale: 1
    - _DstBlend: 0
    - _Float0: 1
    - _GlossMapScale: 0.353
    - _Glossiness: 0.5
    - _GlossyReflections: 1
    - _GroundFade: 0.4
    - _GroundLevel: 0.04
    - _GroundTexture: 1
    - _InvertCoverage: 1
    - _Metallic: 0
    - _Mode: 0
    - _NormalFromCoverage: 1
    - _OcclusionStrength: 1
    - _Parallax: 0.02
    - _SNOW: 1
    - _Smoothness: 0.35
    - _SmoothnessTextureChannel: 0
    - _Snow: 0
    - _SnowAmount: 0.7
    - _SnowFade: 0.127
    - _SpecularHighlights: 1
    - _SrcBlend: 1
    - _SurfaceSmoothness: 0.25
    - _TessEdgeLength: 16
    - _TessMax: 25
    - _TessMaxDisp: 25
    - _TessMin: 10
    - _TessPhongStrength: 0.5
    - _TessValue: 16
    - _ThicknessLevel: 3
    - _ThicknessLevel1: 1
    - _TransAmbient: 0.1
    - _TransDirect: 0.9
    - _TransNormal: 0.5
    - _TransScattering: 2
    - _TransShadow: 0.5
    - _TransStrength: 1
    - _TransmissionShadow: 0.5
    - _UVSec: 0
    - _ZWrite: 1
    - __dirty: 0
    m_Colors:
    - _BarkColor: {r: 0.44705883, g: 0.357349, b: 0.2932706, a: 0}
    - _Color: {r: 0.5019608, g: 0.41566747, b: 0.36141178, a: 1}
    - _CoverageColor: {r: 1, g: 1, b: 1, a: 0}
    - _EmissionColor: {r: 0, g: 0, b: 0, a: 1}
    - _GroundColor: {r: 1, g: 1, b: 1, a: 0}
    - _SurfaceColor: {r: 0.44, g: 0.37448633, b: 0.33176, a: 0}
  m_BuildTextureStacks: []
