# Blender MTL File: 'mountain tut1.blend'
# Material Count: 1

newmtl Material.001
Ns 506.250000
Ka 1.000000 1.000000 1.000000
Kd 0.800000 0.800000 0.800000
Ks 0.500000 0.500000 0.500000
Ke 0.000000 0.000000 0.000000
Ni 1.000000
d 1.000000
illum 2
