%YAML 1.1
%TAG !u! tag:unity3d.com,2011:
--- !u!114 &11400000
MonoBehaviour:
  m_ObjectHideFlags: 0
  m_CorrespondingSourceObject: {fileID: 0}
  m_PrefabInstance: {fileID: 0}
  m_PrefabAsset: {fileID: 0}
  m_GameObject: {fileID: 0}
  m_Enabled: 1
  m_EditorHideFlags: 0
  m_Script: {fileID: 11500000, guid: 612e70f49e5124da0a95111a57250300, type: 3}
  m_Name: DistanceFog
  m_EditorClassIdentifier: 
  raymarchQuality: 6
  raymarchMinStep: 3.68
  jittering: 1
  dithering: 0.653
  renderQueue: 3100
  sortingLayerID: 0
  sortingOrder: 0
  noiseTexture: {fileID: 2800000, guid: 9c79340e1a1054275ba04070a27de306, type: 3}
  noiseStrength: 1.564
  noiseScale: 23.83
  noiseFinalMultiplier: 0.54
  useDetailNoise: 0
  detailTexture: {fileID: 11700000, guid: 950add8d241c6479bbab1f10e1035d60, type: 2}
  detailScale: 6.6
  detailStrength: 1
  detailOffset: -0.5
  density: 0.02
  shape: 0
  border: 0.215
  verticalOffset: 0
  distance: 0
  distanceFallOff: 0.866
  terrainFit: 0
  terrainFitResolution: 128
  terrainLayerMask:
    serializedVersion: 2
    m_Bits: 4294967293
  terrainFogHeight: 25
  terrainFogMinAltitude: 0
  terrainFogMaxAltitude: 561.3
  albedo: {r: 1, g: 1, b: 1, a: 1}
  brightness: 0.26
  deepObscurance: 1
  specularColor: {r: 1, g: 1, b: 1, a: 1}
  specularThreshold: 0.637
  specularIntensity: 0.651
  turbulence: 0.22
  windDirection: {x: 0.01, y: 0.01, z: 0.01}
  lightDiffusionPower: 32
  lightDiffusionIntensity: 0.4
  receiveShadows: 0
  shadowIntensity: 0.5
