%YAML 1.1
%TAG !u! tag:unity3d.com,2011:
--- !u!162 &1
EditorUserSettings:
  m_ObjectHideFlags: 0
  serializedVersion: 4
  m_ConfigSettings:
    RecentlyUsedSceneGuid-0:
      value: 0602030351020b5e0e5b097445720844174f1c2b2f7a77637a7c4861b0b53068
      flags: 0
    RecentlyUsedSceneGuid-1:
      value: 53045700535351080e0b5a2345710a444f4e1d792f2a7f622b281e64e7e6303d
      flags: 0
    RecentlyUsedSceneGuid-2:
      value: 5052500050560d59545f092643270a44434e417d757e76602f7b1f6ae4b16539
      flags: 0
    RecentlyUsedSceneGuid-3:
      value: 055352570753585e0e0a5a7545775944434e1a7c787e74322c2c4432b4e6366f
      flags: 0
    RecentlyUsedSceneGuid-4:
      value: 5a015254500c5d0d5c080e2340225a4440164b78752e7064287b4961e4b23561
      flags: 0
    RecentlyUsedSceneGuid-5:
      value: 0655055701510a0f0b0c0a2342735b4413154e7b2a7a72667e2f4461b7b76d60
      flags: 0
    RecentlyUsedSceneGuid-6:
      value: 530456000101595e0c5a0e7142720f4447161e7d2a7a77672b2a4f35bbb5353d
      flags: 0
    RecentlyUsedSceneGuid-7:
      value: 560301025653515e0c5b5a264427084441154d7f752c24602f791f31e6e26c6b
      flags: 0
    RecentlyUsedSceneGuid-8:
      value: 5205525356025f58090c5c2743765d4442151a732f2a75367f781867e1b26369
      flags: 0
    RecentlyUsedSceneGuid-9:
      value: 5409515153540f025e5e542415735d4444154d29797d7135282b496be7e6306f
      flags: 0
    RecentlyUsedScenePath-0:
      value: 22424703114646680e0b0227036c6b18131a1d6a1f2b233e283a521dedf22030e7f538c5ee3d37282a4cfa320d2a18
      flags: 0
    RecentlyUsedScenePath-1:
      value: 22424703114646680e0b0227036c6b18131a1d6a1f2b233e283a521dedf22030e7f538a9cb3338342d11a1290a371526
      flags: 0
    RecentlyUsedScenePath-2:
      value: 224247031146464f1f0f02311937561f18580c382d2635393920123dacf53a31f6fe
      flags: 0
    RecentlyUsedScenePath-3:
      value: 22424703114646680e0b0227036c6b18131a1d6a1f2b233e283a521eedf63135e7e922a7f234362820
      flags: 0
    RecentlyUsedScenePath-4:
      value: 224247031146467d041c09351f315403592701382366333e243d04
      flags: 0
    RecentlyUsedScenePath-5:
      value: 22424703114646680e0b0227036c6b18131a1d6a1f2b233e283a5215ebf2312fedf53dfaa92f31352d1b
      flags: 0
    RecentlyUsedScenePath-6:
      value: 224247031146467318030d2c5000571104161b3e293a691838241c3dc1e8352ae3e422ecf51b31353403fb350b304f2afc031d12
      flags: 0
    RecentlyUsedScenePath-7:
      value: 22424703114646680e0b0227036c6b18131a1d6a1f2b233e283a5237e7f3312af6b579cde2293a2e2d4cfa320d2a18
      flags: 0
    RecentlyUsedScenePath-8:
      value: 22424703114646680e0b0227036c6b18131a1d6a1f2b233e283a5217e7f3312af6a923e7ee2e26
      flags: 0
    RecentlyUsedScenePath-9:
      value: 22424703114646680e0b0227036c72151802563f22213229
      flags: 0
    UnityEditor.ShaderGraph.Blackboard:
      value: 18135939215a0a5004000b0e15254b524c030a3f2964643d120d1230e9e93a3fd6e826abbd2e2d293c4ead313b08042de6030a0afa240c0d020be94c4baf5e435d8715fa32c70d15d11612dacc11fee5d3c5d1fe9ab1bf968e93e2ffcbc3e7e2f0b3ffe0e8b0be9af8ffaeffff8e85dd8390e3949c8899daa7
      flags: 0
    UnityEditor.ShaderGraph.FloatingWindowsLayout2:
      value: 181344140043005e1a220d3b1f364b524c0c5a27130c293326201334cee5322ca0bd30e8eb293a707b0fd0180b3d0a36fc0d3d04e649500d1002ee0b5dbd1d2c27c00ad113cb1e10e41f1addc80993b98d9884a69ae6d8f0d1cda9e8fbfefaf9f9dea3fdb9ade882f0f7b0e1e380cafbf2c3adc18e9cd285a2908b82ec869c8395949c9483d68a8e97ddbd90bf
      flags: 0
    UnityEditor.ShaderGraph.InspectorWindow:
      value: 18135939215a0a5004000b0e15254b524c1119263f2d6a722016393ce1eb3d36e5d339f9a5602b2e2c07a37e0901373ae01e0008f707250d171df81a53a5485d41895ac825e0100ec20313c0d91cddccd3d0c7efcca9bd80908fecb0f9cfddf1eff4e7a1b1eae482f0fcaee1e1928b86d888ed969b938797a7cf
      flags: 0
    lightmappingDeviceAndPlatform:
      value: 53
      flags: 0
    vcSharedLogLevel:
      value: 0d5e400f0650
      flags: 0
  m_VCAutomaticAdd: 1
  m_VCDebugCom: 0
  m_VCDebugCmd: 0
  m_VCDebugOut: 0
  m_SemanticMergeMode: 2
  m_DesiredImportWorkerCount: 5
  m_StandbyImportWorkerCount: 2
  m_IdleImportWorkerShutdownDelay: 60000
  m_VCShowFailedCheckout: 1
  m_VCOverwriteFailedCheckoutAssets: 1
  m_VCProjectOverlayIcons: 1
  m_VCHierarchyOverlayIcons: 1
  m_VCOtherOverlayIcons: 1
  m_VCAllowAsyncUpdate: 0
  m_ArtifactGarbageCollection: 1
